2x2/BLM2022 - Computer Organization/homeworks/hw3/22011641/riscvtest.vcd
$date
	Mon May 20 03:01:10 2024
$end
$version
	Icarus Verilog
$end
$timescale
	1s
$end
$scope module testbench $end
$var wire 32 ! WriteData [31:0] $end
$var wire 1 " MemWrite $end
$var wire 32 # DataAdr [31:0] $end
$var parameter 32 $ ARR_LENGTH $end
$var reg 1 % clk $end
$var reg 1 & reset $end
$var integer 32 ' i [31:0] $end
$scope module uut $end
$var wire 1 % clk $end
$var wire 1 & reset $end
$var wire 32 ( WriteData [31:0] $end
$var wire 32 ) ReadData [31:0] $end
$var wire 32 * PC [31:0] $end
$var wire 1 " MemWrite $end
$var wire 32 + Instr [31:0] $end
$var wire 32 , DataAdr [31:0] $end
$scope module dmem $end
$var wire 1 % clk $end
$var wire 32 - rd [31:0] $end
$var wire 1 " we $end
$var wire 32 . wd [31:0] $end
$var wire 32 / a [31:0] $end
$upscope $end
$scope module imem $end
$var wire 32 0 rd [31:0] $end
$var wire 32 1 a [31:0] $end
$upscope $end
$scope module rvsingle $end
$var wire 32 2 Instr [31:0] $end
$var wire 32 3 ReadData [31:0] $end
$var wire 1 % clk $end
$var wire 1 & reset $end
$var wire 1 4 Zero $end
$var wire 32 5 WriteData [31:0] $end
$var wire 2 6 ResultSrc [1:0] $end
$var wire 1 7 RegWrite $end
$var wire 1 8 PCSrc $end
$var wire 32 9 PC [31:0] $end
$var wire 1 " MemWrite $end
$var wire 1 : Jump $end
$var wire 2 ; ImmSrc [1:0] $end
$var wire 1 < ALUSrc $end
$var wire 32 = ALUResult [31:0] $end
$var wire 3 > ALUControl [2:0] $end
$scope module c $end
$var wire 1 8 PCSrc $end
$var wire 3 ? funct3 [2:0] $end
$var wire 1 @ funct7b5 $end
$var wire 7 A op [6:0] $end
$var wire 1 4 Zero $end
$var wire 2 B ResultSrc [1:0] $end
$var wire 1 7 RegWrite $end
$var wire 1 " MemWrite $end
$var wire 1 : Jump $end
$var wire 2 C ImmSrc [1:0] $end
$var wire 1 D Branch $end
$var wire 1 < ALUSrc $end
$var wire 2 E ALUOp [1:0] $end
$var wire 3 F ALUControl [2:0] $end
$scope module ad $end
$var wire 1 G RtypeSub $end
$var wire 3 H funct3 [2:0] $end
$var wire 1 @ funct7b5 $end
$var wire 1 I opb5 $end
$var wire 2 J ALUOp [1:0] $end
$var reg 3 K ALUControl [2:0] $end
$upscope $end
$scope module md $end
$var wire 7 L op [6:0] $end
$var reg 2 M ALUOp [1:0] $end
$var reg 1 < ALUSrc $end
$var reg 1 D Branch $end
$var reg 2 N ImmSrc [1:0] $end
$var reg 1 : Jump $end
$var reg 1 " MemWrite $end
$var reg 1 7 RegWrite $end
$var reg 2 O ResultSrc [1:0] $end
$upscope $end
$upscope $end
$scope module dp $end
$var wire 3 P ALUControl [2:0] $end
$var wire 1 < ALUSrc $end
$var wire 2 Q ImmSrc [1:0] $end
$var wire 32 R Instr [31:0] $end
$var wire 1 8 PCSrc $end
$var wire 32 S ReadData [31:0] $end
$var wire 1 7 RegWrite $end
$var wire 2 T ResultSrc [1:0] $end
$var wire 1 % clk $end
$var wire 1 & reset $end
$var wire 1 4 Zero $end
$var wire 32 U WriteData [31:0] $end
$var wire 32 V SrcB [31:0] $end
$var wire 32 W SrcA [31:0] $end
$var wire 32 X Result [31:0] $end
$var wire 32 Y PCTarget [31:0] $end
$var wire 32 Z PCPlus4 [31:0] $end
$var wire 32 [ PCNext [31:0] $end
$var wire 32 \ PC [31:0] $end
$var wire 32 ] ImmExt [31:0] $end
$var wire 32 ^ ALUResult [31:0] $end
$scope module alu $end
$var wire 3 _ sel [2:0] $end
$var wire 1 4 zero $end
$var wire 32 ` b [31:0] $end
$var wire 32 a a [31:0] $end
$var reg 32 b y [31:0] $end
$upscope $end
$scope module ext $end
$var wire 2 c immsrc [1:0] $end
$var wire 25 d instr [31:7] $end
$var reg 32 e immext [31:0] $end
$upscope $end
$scope module pcadd4 $end
$var wire 32 f b [31:0] $end
$var wire 32 g y [31:0] $end
$var wire 32 h a [31:0] $end
$upscope $end
$scope module pcaddbranch $end
$var wire 32 i b [31:0] $end
$var wire 32 j y [31:0] $end
$var wire 32 k a [31:0] $end
$upscope $end
$scope module pcmux $end
$var wire 32 l d0 [31:0] $end
$var wire 32 m d1 [31:0] $end
$var wire 1 8 s $end
$var wire 32 n y [31:0] $end
$var parameter 32 o WIDTH $end
$upscope $end
$scope module pcreg $end
$var wire 1 % clk $end
$var wire 32 p d [31:0] $end
$var wire 1 & reset $end
$var parameter 32 q WIDTH $end
$var reg 32 r q [31:0] $end
$upscope $end
$scope module resultmux $end
$var wire 32 s d0 [31:0] $end
$var wire 32 t d1 [31:0] $end
$var wire 32 u d2 [31:0] $end
$var wire 2 v s [1:0] $end
$var parameter 32 w WIDTH $end
$var reg 32 x y [31:0] $end
$upscope $end
$scope module rf $end
$var wire 5 y a1 [4:0] $end
$var wire 5 z a2 [4:0] $end
$var wire 5 { a3 [4:0] $end
$var wire 1 % clk $end
$var wire 32 | wd3 [31:0] $end
$var wire 1 7 we3 $end
$var wire 32 } rd2 [31:0] $end
$var wire 32 ~ rd1 [31:0] $end
$upscope $end
$scope module srcbmux $end
$var wire 32 !" d0 [31:0] $end
$var wire 32 "" d1 [31:0] $end
$var wire 1 < s $end
$var wire 32 #" y [31:0] $end
$var parameter 32 $" WIDTH $end
$upscope $end
$upscope $end
$upscope $end
$upscope $end
$upscope $end
$enddefinitions $end
$comment Show the parameter values. $end
$dumpall
b100000 $"
b100000 w
b100000 q
b100000 o
b10100 $
$end
#0
$dumpvars
b0 #"
b0 ""
b0 !"
b0 ~
b0 }
b0 |
b1010 {
b0 z
b0 y
b0 x
b0 v
b100 u
b11 t
b0 s
b0 r
b100 p
b100 n
b0 m
b100 l
b0 k
b0 j
b0 i
b0 h
b100 g
b100 f
b0 e
b1010 d
b0 c
b0 b
b0 a
b0 `
b0 _
b0 ^
b0 ]
b0 \
b100 [
b100 Z
b0 Y
b0 X
b0 W
b0 V
b0 U
b0 T
b11 S
b10100010011 R
b0 Q
b0 P
b0 O
b0 N
b10 M
b10011 L
b0 K
b10 J
0I
b0 H
0G
b0 F
b10 E
0D
b0 C
b0 B
b10011 A
0@
b0 ?
b0 >
b0 =
1<
b0 ;
0:
b0 9
08
17
b0 6
b0 5
14
b11 3
b10100010011 2
b0 1
b10100010011 0
b0 /
b0 .
b11 -
b0 ,
b10100010011 +
b0 *
b11 )
b0 (
b0 '
1&
1%
b0 #
0"
b0 !
$end
#5
0%
#10
1%
#15
0%
#20
1%
#22
0&
#25
0%
#30
b10001 )
b10001 -
b10001 3
b10001 S
b10001 t
b1010000 X
b1010000 x
b1010000 |
04
b1010000 #
b1010000 ,
b1010000 /
b1010000 =
b1010000 ^
b1010000 b
b1010000 s
b1010000 V
b1010000 `
b1010000 #"
bx !
bx (
bx .
bx 5
bx U
bx }
bx !"
b1010000 ]
b1010000 e
b1010000 i
b1010000 ""
b10000 z
b1011 {
b10100000000000001011 d
b1000 [
b1000 n
b1000 p
b101000000000000010110010011 +
b101000000000000010110010011 0
b101000000000000010110010011 2
b101000000000000010110010011 R
b1010100 Y
b1010100 j
b1010100 m
b1000 Z
b1000 g
b1000 l
b1000 u
b100 *
b100 1
b100 9
b100 \
b100 h
b100 k
b100 r
1%
#35
0%
#40
bx )
bx -
bx 3
bx S
bx t
b10100000 X
b10100000 x
b10100000 |
b10100000 #
b10100000 ,
b10100000 /
b10100000 =
b10100000 ^
b10100000 b
b10100000 s
b10100000 V
b10100000 `
b10100000 #"
b0 !
b0 (
b0 .
b0 5
b0 U
b0 }
b0 !"
b10100000 ]
b10100000 e
b10100000 i
b10100000 ""
b0 z
b1100 {
b101000000000000001100 d
b1100 [
b1100 n
b1100 p
b1010000000000000011000010011 +
b1010000000000000011000010011 0
b1010000000000000011000010011 2
b1010000000000000011000010011 R
b10101000 Y
b10101000 j
b10101000 m
b1100 Z
b1100 g
b1100 l
b1100 u
b1000 *
b1000 1
b1000 9
b1000 \
b1000 h
b1000 k
b1000 r
1%
#45
0%
#50
b100 )
b100 -
b100 3
b100 S
b100 t
b10100 X
b10100 x
b10100 |
b10100 #
b10100 ,
b10100 /
b10100 =
b10100 ^
b10100 b
b10100 s
b10100 V
b10100 `
b10100 #"
bx !
bx (
bx .
bx 5
bx U
bx }
bx !"
b10100 ]
b10100 e
b10100 i
b10100 ""
b10100 z
b1101 {
b101000000000001101 d
b10000 [
b10000 n
b10000 p
b1010000000000011010010011 +
b1010000000000011010010011 0
b1010000000000011010010011 2
b1010000000000011010010011 R
b100000 Y
b100000 j
b100000 m
b10000 Z
b10000 g
b10000 l
b10000 u
b1100 *
b1100 1
b1100 9
b1100 \
b1100 h
b1100 k
b1100 r
1%
#55
0%
#60
b11 )
b11 -
b11 3
b11 S
b11 t
b11 X
b11 x
b11 |
14
b0 #
b0 ,
b0 /
b0 =
b0 ^
b0 b
b0 s
b0 V
b0 `
b0 #"
b1 6
b1 B
b1 O
b1 T
b1 v
b0 E
b0 J
b0 M
b0 >
b0 F
b0 K
b0 P
b0 _
b0 !
b0 (
b0 .
b0 5
b0 U
b0 }
b0 !"
b0 ]
b0 e
b0 i
b0 ""
b11 A
b11 L
b10 ?
b10 H
b1010 y
b0 z
b1110 {
b101001001110 d
b10100 [
b10100 n
b10100 p
b1010010011100000011 +
b1010010011100000011 0
b1010010011100000011 2
b1010010011100000011 R
b10000 Y
b10000 j
b10000 m
b10100 Z
b10100 g
b10100 l
b10100 u
b10000 *
b10000 1
b10000 9
b10000 \
b10000 h
b10000 k
b10000 r
1%
#65
0%
#70
b10001 X
b10001 x
b10001 |
b10001 )
b10001 -
b10001 3
b10001 S
b10001 t
04
b1010000 #
b1010000 ,
b1010000 /
b1010000 =
b1010000 ^
b1010000 b
b1010000 s
b1010000 W
b1010000 a
b1010000 ~
b1011 y
b1111 {
b101101001111 d
b11000 [
b11000 n
b11000 p
b1011010011110000011 +
b1011010011110000011 0
b1011010011110000011 2
b1011010011110000011 R
b10100 Y
b10100 j
b10100 m
b11000 Z
b11000 g
b11000 l
b11000 u
b10100 *
b10100 1
b10100 9
b10100 \
b10100 h
b10100 k
b10100 r
1%
#75
0%
#80
b1111100111 )
b1111100111 -
b1111100111 3
b1111100111 S
b1111100111 t
b100010 X
b100010 x
b100010 |
b100010 #
b100010 ,
b100010 /
b100010 =
b100010 ^
b100010 b
b100010 s
b10001 V
b10001 `
b10001 #"
1I
bx ;
bx C
bx N
bx Q
bx c
0<
b0 6
b0 B
b0 O
b0 T
b0 v
b10 E
b10 J
b10 M
b10001 W
b10001 a
b10001 ~
b10001 !
b10001 (
b10001 .
b10001 5
b10001 U
b10001 }
b10001 !"
bx ]
bx e
bx i
bx ""
b110011 A
b110011 L
b0 ?
b0 H
b1111 y
b1111 z
b10000 {
b11110111100010000 d
b11100 [
b11100 n
b11100 p
b111101111000100000110011 +
b111101111000100000110011 0
b111101111000100000110011 2
b111101111000100000110011 R
bx Y
bx j
bx m
b11100 Z
b11100 g
b11100 l
b11100 u
b11000 *
b11000 1
b11000 9
b11000 \
b11000 h
b11000 k
b11000 r
1%
#85
0%
#90
b11111010 )
b11111010 -
b11111010 3
b11111010 S
b11111010 t
b1000100 X
b1000100 x
b1000100 |
b1000100 #
b1000100 ,
b1000100 /
b1000100 =
b1000100 ^
b1000100 b
b1000100 s
b100010 V
b100010 `
b100010 #"
b100010 W
b100010 a
b100010 ~
b100010 !
b100010 (
b100010 .
b100010 5
b100010 U
b100010 }
b100010 !"
b10000 y
b10000 z
b100001000000010000 d
b100000 [
b100000 n
b100000 p
b1000010000000100000110011 +
b1000010000000100000110011 0
b1000010000000100000110011 2
b1000010000000100000110011 R
b100000 Z
b100000 g
b100000 l
b100000 u
b11100 *
b11100 1
b11100 9
b11100 \
b11100 h
b11100 k
b11100 r
1%
#95
0%
#100
bx )
bx -
bx 3
bx S
bx t
b11100100 X
b11100100 x
b11100100 |
b11100100 #
b11100100 ,
b11100100 /
b11100100 =
b11100100 ^
b11100100 b
b11100100 s
b10100000 V
b10100000 `
b10100000 #"
b1100 z
b11001000000010000 d
b1000100 W
b1000100 a
b1000100 ~
b10100000 !
b10100000 (
b10100000 .
b10100000 5
b10100000 U
b10100000 }
b10100000 !"
b100100 [
b100100 n
b100100 p
b110010000000100000110011 +
b110010000000100000110011 0
b110010000000100000110011 2
b110010000000100000110011 R
b100100 Z
b100100 g
b100100 l
b100100 u
b100000 *
b100000 1
b100000 9
b100000 \
b100000 h
b100000 k
b100000 r
1%
#105
0%
#110
bx )
bx -
bx 3
bx S
bx t
b100100 Y
b100100 j
b100100 m
b0 ]
b0 e
b0 i
b0 ""
04
b0 V
b0 `
b0 #"
b11100100 X
b11100100 x
b11100100 |
07
b1 ;
b1 C
b1 N
b1 Q
b1 c
1<
1"
b0 E
b0 J
b0 M
b0 >
b0 F
b0 K
b0 P
b0 _
b11 !
b11 (
b11 .
b11 5
b11 U
b11 }
b11 !"
b11100100 #
b11100100 ,
b11100100 /
b11100100 =
b11100100 ^
b11100100 b
b11100100 s
b100011 A
b100011 L
b10 ?
b10 H
b1110 z
b0 {
b11101000001000000 d
b11100100 W
b11100100 a
b11100100 ~
b101000 [
b101000 n
b101000 p
b111010000010000000100011 +
b111010000010000000100011 0
b111010000010000000100011 2
b111010000010000000100011 R
b101000 Z
b101000 g
b101000 l
b101000 u
b100100 *
b100100 1
b100100 9
b100100 \
b100100 h
b100100 k
b100100 r
1%
#115
b1 '
0%
#120
b100 X
b100 x
b100 |
b100 #
b100 ,
b100 /
b100 =
b100 ^
b100 b
b100 s
b100 V
b100 `
b100 #"
0I
17
b0 ;
b0 C
b0 N
b0 Q
b0 c
0"
b10 E
b10 J
b10 M
b0 W
b0 a
b0 ~
bx !
bx (
bx .
bx 5
bx U
bx }
bx !"
b100 ]
b100 e
b100 i
b100 ""
b10011 A
b10011 L
b0 ?
b0 H
b1010 y
b100 z
b1010 {
b1000101000001010 d
b101100 [
b101100 n
b101100 p
b10001010000010100010011 +
b10001010000010100010011 0
b10001010000010100010011 2
b10001010000010100010011 R
b111 )
b111 -
b111 3
b111 S
b111 t
b101100 Y
b101100 j
b101100 m
b101100 Z
b101100 g
b101100 l
b101100 u
b101000 *
b101000 1
b101000 9
b101000 \
b101000 h
b101000 k
b101000 r
1%
#125
0%
#130
b1101 )
b1101 -
b1101 3
b1101 S
b1101 t
b1010100 X
b1010100 x
b1010100 |
b1010100 #
b1010100 ,
b1010100 /
b1010100 =
b1010100 ^
b1010100 b
b1010100 s
b1011 y
b1011 {
b1000101100001011 d
b1010000 W
b1010000 a
b1010000 ~
b110000 [
b110000 n
b110000 p
b10001011000010110010011 +
b10001011000010110010011 0
b10001011000010110010011 2
b10001011000010110010011 R
b110000 Y
b110000 j
b110000 m
b110000 Z
b110000 g
b110000 l
b110000 u
b101100 *
b101100 1
b101100 9
b101100 \
b101100 h
b101100 k
b101100 r
1%
#135
0%
#140
b11111111111111111111111111111111 V
b11111111111111111111111111111111 `
b11111111111111111111111111111111 #"
b101 )
b101 -
b101 3
b101 S
b101 t
b10011 X
b10011 x
b10011 |
b11111111111111111111111111111111 ]
b11111111111111111111111111111111 e
b11111111111111111111111111111111 i
b11111111111111111111111111111111 ""
b10011 #
b10011 ,
b10011 /
b10011 =
b10011 ^
b10011 b
b10011 s
1@
b1101 y
b11111 z
b1101 {
b1111111111110110100001101 d
b10100 W
b10100 a
b10100 ~
b110100 [
b110100 n
b110100 p
b11111111111101101000011010010011 +
b11111111111101101000011010010011 0
b11111111111101101000011010010011 2
b11111111111101101000011010010011 R
b101111 Y
b101111 j
b101111 m
b110100 Z
b110100 g
b110100 l
b110100 u
b110000 *
b110000 1
b110000 9
b110000 \
b110000 h
b110000 k
b110000 r
1%
#145
0%
#150
b1 >
b1 F
b1 K
b1 P
b1 _
b0 V
b0 `
b0 #"
b10011 X
b10011 x
b10011 |
1I
07
b10 ;
b10 C
b10 N
b10 Q
b10 c
0<
1D
b1 E
b1 J
b1 M
b0 !
b0 (
b0 .
b0 5
b0 U
b0 }
b0 !"
b1000 ]
b1000 e
b1000 i
b1000 ""
b10011 #
b10011 ,
b10011 /
b10011 =
b10011 ^
b10011 b
b10011 s
b1100011 A
b1100011 L
0@
b0 z
b1000 {
b110100001000 d
b10011 W
b10011 a
b10011 ~
b111000 [
b111000 n
b111000 p
b1101000010001100011 +
b1101000010001100011 0
b1101000010001100011 2
b1101000010001100011 R
b111100 Y
b111100 j
b111100 m
b111000 Z
b111000 g
b111000 l
b111000 u
b110100 *
b110100 1
b110100 9
b110100 \
b110100 h
b110100 k
b110100 r
1%
#155
0%
#160
bx )
bx -
bx 3
bx S
bx t
b111100 X
b111100 x
b111100 |
b0 >
b0 F
b0 K
b0 P
b0 _
18
x4
bx #
bx ,
bx /
bx =
bx ^
bx b
bx s
bx V
bx `
bx #"
17
b11 ;
b11 C
b11 N
b11 Q
b11 c
b10 6
b10 B
b10 O
b10 T
b10 v
0D
b0 E
b0 J
b0 M
1:
1G
bx W
bx a
bx ~
bx !
bx (
bx .
bx 5
bx U
bx }
bx !"
b11111111111111111111111111011000 ]
b11111111111111111111111111011000 e
b11111111111111111111111111011000 i
b11111111111111111111111111011000 ""
b1101111 A
b1101111 L
b111 ?
b111 H
1@
b11111 y
b11001 z
b0 {
b1111110110011111111100000 d
b10000 [
b10000 n
b10000 p
b11111101100111111111000001101111 +
b11111101100111111111000001101111 0
b11111101100111111111000001101111 2
b11111101100111111111000001101111 R
b10000 Y
b10000 j
b10000 m
b111100 Z
b111100 g
b111100 l
b111100 u
b111000 *
b111000 1
b111000 9
b111000 \
b111000 h
b111000 k
b111000 r
1%
#165
0%
#170
b111 )
b111 -
b111 3
b111 S
b111 t
08
04
b100 #
b100 ,
b100 /
b100 =
b100 ^
b100 b
b100 s
b0 V
b0 `
b0 #"
0I
b0 ;
b0 C
b0 N
b0 Q
b0 c
1<
b1 6
b1 B
b1 O
b1 T
b1 v
0:
0G
b100 W
b100 a
b100 ~
b0 !
b0 (
b0 .
b0 5
b0 U
b0 }
b0 !"
b0 ]
b0 e
b0 i
b0 ""
b11 A
b11 L
b10 ?
b10 H
0@
b1010 y
b0 z
b1110 {
b101001001110 d
b10100 [
b10100 n
b10100 p
b111 X
b111 x
b111 |
b1010010011100000011 +
b1010010011100000011 0
b1010010011100000011 2
b1010010011100000011 R
b10000 Y
b10000 j
b10000 m
b10100 Z
b10100 g
b10100 l
b10100 u
b10000 *
b10000 1
b10000 9
b10000 \
b10000 h
b10000 k
b10000 r
1%
#175
0%
#180
b1101 X
b1101 x
b1101 |
b1101 )
b1101 -
b1101 3
b1101 S
b1101 t
b1010100 #
b1010100 ,
b1010100 /
b1010100 =
b1010100 ^
b1010100 b
b1010100 s
b1010100 W
b1010100 a
b1010100 ~
b1011 y
b1111 {
b101101001111 d
b11000 [
b11000 n
b11000 p
b1011010011110000011 +
b1011010011110000011 0
b1011010011110000011 2
b1011010011110000011 R
b10100 Y
b10100 j
b10100 m
b11000 Z
b11000 g
b11000 l
b11000 u
b10100 *
b10100 1
b10100 9
b10100 \
b10100 h
b10100 k
b10100 r
1%
#185
0%
#190
b1 )
b1 -
b1 3
b1 S
b1 t
b11010 X
b11010 x
b11010 |
b11010 #
b11010 ,
b11010 /
b11010 =
b11010 ^
b11010 b
b11010 s
b1101 V
b1101 `
b1101 #"
1I
bx ;
bx C
bx N
bx Q
bx c
0<
b0 6
b0 B
b0 O
b0 T
b0 v
b10 E
b10 J
b10 M
b1101 W
b1101 a
b1101 ~
b1101 !
b1101 (
b1101 .
b1101 5
b1101 U
b1101 }
b1101 !"
bx ]
bx e
bx i
bx ""
b110011 A
b110011 L
b0 ?
b0 H
b1111 y
b1111 z
b10000 {
b11110111100010000 d
b11100 [
b11100 n
b11100 p
b111101111000100000110011 +
b111101111000100000110011 0
b111101111000100000110011 2
b111101111000100000110011 R
bx Y
bx j
bx m
b11100 Z
b11100 g
b11100 l
b11100 u
b11000 *
b11000 1
b11000 9
b11000 \
b11000 h
b11000 k
b11000 r
1%
#195
0%
#200
b10100 )
b10100 -
b10100 3
b10100 S
b10100 t
b110100 X
b110100 x
b110100 |
b110100 #
b110100 ,
b110100 /
b110100 =
b110100 ^
b110100 b
b110100 s
b11010 V
b11010 `
b11010 #"
b11010 W
b11010 a
b11010 ~
b11010 !
b11010 (
b11010 .
b11010 5
b11010 U
b11010 }
b11010 !"
b10000 y
b10000 z
b100001000000010000 d
b100000 [
b100000 n
b100000 p
b1000010000000100000110011 +
b1000010000000100000110011 0
b1000010000000100000110011 2
b1000010000000100000110011 R
b100000 Z
b100000 g
b100000 l
b100000 u
b11100 *
b11100 1
b11100 9
b11100 \
b11100 h
b11100 k
b11100 r
1%
#205
0%
#210
bx )
bx -
bx 3
bx S
bx t
b11010100 X
b11010100 x
b11010100 |
b11010100 #
b11010100 ,
b11010100 /
b11010100 =
b11010100 ^
b11010100 b
b11010100 s
b10100000 V
b10100000 `
b10100000 #"
b1100 z
b11001000000010000 d
b110100 W
b110100 a
b110100 ~
b10100000 !
b10100000 (
b10100000 .
b10100000 5
b10100000 U
b10100000 }
b10100000 !"
b100100 [
b100100 n
b100100 p
b110010000000100000110011 +
b110010000000100000110011 0
b110010000000100000110011 2
b110010000000100000110011 R
b100100 Z
b100100 g
b100100 l
b100100 u
b100000 *
b100000 1
b100000 9
b100000 \
b100000 h
b100000 k
b100000 r
1%
#215
0%
#220
bx )
bx -
bx 3
bx S
bx t
b100100 Y
b100100 j
b100100 m
b0 ]
b0 e
b0 i
b0 ""
04
b0 V
b0 `
b0 #"
b11010100 X
b11010100 x
b11010100 |
07
b1 ;
b1 C
b1 N
b1 Q
b1 c
1<
1"
b0 E
b0 J
b0 M
b0 >
b0 F
b0 K
b0 P
b0 _
b111 !
b111 (
b111 .
b111 5
b111 U
b111 }
b111 !"
b11010100 #
b11010100 ,
b11010100 /
b11010100 =
b11010100 ^
b11010100 b
b11010100 s
b100011 A
b100011 L
b10 ?
b10 H
b1110 z
b0 {
b11101000001000000 d
b11010100 W
b11010100 a
b11010100 ~
b101000 [
b101000 n
b101000 p
b111010000010000000100011 +
b111010000010000000100011 0
b111010000010000000100011 2
b111010000010000000100011 R
b101000 Z
b101000 g
b101000 l
b101000 u
b100100 *
b100100 1
b100100 9
b100100 \
b100100 h
b100100 k
b100100 r
1%
#225
b10 '
0%
#230
b1000 X
b1000 x
b1000 |
b1000 #
b1000 ,
b1000 /
b1000 =
b1000 ^
b1000 b
b1000 s
b100 V
b100 `
b100 #"
0I
17
b0 ;
b0 C
b0 N
b0 Q
b0 c
0"
b10 E
b10 J
b10 M
b100 W
b100 a
b100 ~
bx !
bx (
bx .
bx 5
bx U
bx }
bx !"
b100 ]
b100 e
b100 i
b100 ""
b10011 A
b10011 L
b0 ?
b0 H
b1010 y
b100 z
b1010 {
b1000101000001010 d
b101100 [
b101100 n
b101100 p
b10001010000010100010011 +
b10001010000010100010011 0
b10001010000010100010011 2
b10001010000010100010011 R
b10 )
b10 -
b10 3
b10 S
b10 t
b101100 Y
b101100 j
b101100 m
b101100 Z
b101100 g
b101100 l
b101100 u
b101000 *
b101000 1
b101000 9
b101000 \
b101000 h
b101000 k
b101000 r
1%
#235
0%
#240
b10010 )
b10010 -
b10010 3
b10010 S
b10010 t
b1011000 X
b1011000 x
b1011000 |
b1011000 #
b1011000 ,
b1011000 /
b1011000 =
b1011000 ^
b1011000 b
b1011000 s
b1011 y
b1011 {
b1000101100001011 d
b1010100 W
b1010100 a
b1010100 ~
b110000 [
b110000 n
b110000 p
b10001011000010110010011 +
b10001011000010110010011 0
b10001011000010110010011 2
b10001011000010110010011 R
b110000 Y
b110000 j
b110000 m
b110000 Z
b110000 g
b110000 l
b110000 u
b101100 *
b101100 1
b101100 9
b101100 \
b101100 h
b101100 k
b101100 r
1%
#245
0%
#250
b11111111111111111111111111111111 V
b11111111111111111111111111111111 `
b11111111111111111111111111111111 #"
b101 )
b101 -
b101 3
b101 S
b101 t
b10010 X
b10010 x
b10010 |
b11111111111111111111111111111111 ]
b11111111111111111111111111111111 e
b11111111111111111111111111111111 i
b11111111111111111111111111111111 ""
b10010 #
b10010 ,
b10010 /
b10010 =
b10010 ^
b10010 b
b10010 s
1@
b1101 y
b11111 z
b1101 {
b1111111111110110100001101 d
b10011 W
b10011 a
b10011 ~
b110100 [
b110100 n
b110100 p
b11111111111101101000011010010011 +
b11111111111101101000011010010011 0
b11111111111101101000011010010011 2
b11111111111101101000011010010011 R
b101111 Y
b101111 j
b101111 m
b110100 Z
b110100 g
b110100 l
b110100 u
b110000 *
b110000 1
b110000 9
b110000 \
b110000 h
b110000 k
b110000 r
1%
#255
0%
#260
b1 >
b1 F
b1 K
b1 P
b1 _
b0 V
b0 `
b0 #"
b10010 X
b10010 x
b10010 |
1I
07
b10 ;
b10 C
b10 N
b10 Q
b10 c
0<
1D
b1 E
b1 J
b1 M
b0 !
b0 (
b0 .
b0 5
b0 U
b0 }
b0 !"
b1000 ]
b1000 e
b1000 i
b1000 ""
b10010 #
b10010 ,
b10010 /
b10010 =
b10010 ^
b10010 b
b10010 s
b1100011 A
b1100011 L
0@
b0 z
b1000 {
b110100001000 d
b10010 W
b10010 a
b10010 ~
b111000 [
b111000 n
b111000 p
b1101000010001100011 +
b1101000010001100011 0
b1101000010001100011 2
b1101000010001100011 R
b111100 Y
b111100 j
b111100 m
b111000 Z
b111000 g
b111000 l
b111000 u
b110100 *
b110100 1
b110100 9
b110100 \
b110100 h
b110100 k
b110100 r
1%
#265
0%
#270
bx )
bx -
bx 3
bx S
bx t
b111100 X
b111100 x
b111100 |
b0 >
b0 F
b0 K
b0 P
b0 _
18
x4
bx #
bx ,
bx /
bx =
bx ^
bx b
bx s
bx V
bx `
bx #"
17
b11 ;
b11 C
b11 N
b11 Q
b11 c
b10 6
b10 B
b10 O
b10 T
b10 v
0D
b0 E
b0 J
b0 M
1:
1G
bx W
bx a
bx ~
bx !
bx (
bx .
bx 5
bx U
bx }
bx !"
b11111111111111111111111111011000 ]
b11111111111111111111111111011000 e
b11111111111111111111111111011000 i
b11111111111111111111111111011000 ""
b1101111 A
b1101111 L
b111 ?
b111 H
1@
b11111 y
b11001 z
b0 {
b1111110110011111111100000 d
b10000 [
b10000 n
b10000 p
b11111101100111111111000001101111 +
b11111101100111111111000001101111 0
b11111101100111111111000001101111 2
b11111101100111111111000001101111 R
b10000 Y
b10000 j
b10000 m
b111100 Z
b111100 g
b111100 l
b111100 u
b111000 *
b111000 1
b111000 9
b111000 \
b111000 h
b111000 k
b111000 r
1%
#275
0%
#280
b10 )
b10 -
b10 3
b10 S
b10 t
08
04
b1000 #
b1000 ,
b1000 /
b1000 =
b1000 ^
b1000 b
b1000 s
b0 V
b0 `
b0 #"
0I
b0 ;
b0 C
b0 N
b0 Q
b0 c
1<
b1 6
b1 B
b1 O
b1 T
b1 v
0:
0G
b1000 W
b1000 a
b1000 ~
b0 !
b0 (
b0 .
b0 5
b0 U
b0 }
b0 !"
b0 ]
b0 e
b0 i
b0 ""
b11 A
b11 L
b10 ?
b10 H
0@
b1010 y
b0 z
b1110 {
b101001001110 d
b10100 [
b10100 n
b10100 p
b10 X
b10 x
b10 |
b1010010011100000011 +
b1010010011100000011 0
b1010010011100000011 2
b1010010011100000011 R
b10000 Y
b10000 j
b10000 m
b10100 Z
b10100 g
b10100 l
b10100 u
b10000 *
b10000 1
b10000 9
b10000 \
b10000 h
b10000 k
b10000 r
1%
#285
0%
#290
b10010 X
b10010 x
b10010 |
b10010 )
b10010 -
b10010 3
b10010 S
b10010 t
b1011000 #
b1011000 ,
b1011000 /
b1011000 =
b1011000 ^
b1011000 b
b1011000 s
b1011000 W
b1011000 a
b1011000 ~
b1011 y
b1111 {
b101101001111 d
b11000 [
b11000 n
b11000 p
b1011010011110000011 +
b1011010011110000011 0
b1011010011110000011 2
b1011010011110000011 R
b10100 Y
b10100 j
b10100 m
b11000 Z
b11000 g
b11000 l
b11000 u
b10100 *
b10100 1
b10100 9
b10100 \
b10100 h
b10100 k
b10100 r
1%
#295
0%
#300
b11001 )
b11001 -
b11001 3
b11001 S
b11001 t
b100100 X
b100100 x
b100100 |
b100100 #
b100100 ,
b100100 /
b100100 =
b100100 ^
b100100 b
b100100 s
b10010 V
b10010 `
b10010 #"
1I
bx ;
bx C
bx N
bx Q
bx c
0<
b0 6
b0 B
b0 O
b0 T
b0 v
b10 E
b10 J
b10 M
b10010 W
b10010 a
b10010 ~
b10010 !
b10010 (
b10010 .
b10010 5
b10010 U
b10010 }
b10010 !"
bx ]
bx e
bx i
bx ""
b110011 A
b110011 L
b0 ?
b0 H
b1111 y
b1111 z
b10000 {
b11110111100010000 d
b11100 [
b11100 n
b11100 p
b111101111000100000110011 +
b111101111000100000110011 0
b111101111000100000110011 2
b111101111000100000110011 R
bx Y
bx j
bx m
b11100 Z
b11100 g
b11100 l
b11100 u
b11000 *
b11000 1
b11000 9
b11000 \
b11000 h
b11000 k
b11000 r
1%
#305
0%
